[
	{
		"id": "1",
		"judul": "Adab",
		"hadits": [
			{
				"id": "1",
				"judul": "Hak-hak sesama muslim",
			},
			{
				"id": "2",
				"judul": "Anjuran melihat kepada yang lebih rendah dalam masalah nikmat",
			},
			{
				"id": "3",
				"judul": "Kebaikan dan dosa",
			},
			{
				"id": "4",
				"judul": "Larangan berbisik-bisik tanpa melibatkan yang lain",
			},
      {
				"id": "5",
				"judul": "Larangan mengusir orang lain dari tempat duduknya",
			},
      {
				"id": "6",
				"judul": "Anjuran menjilati jari tangan setelah makan",
			},
      {
				"id": "7",
				"judul": "Anjuran mengucapkan salam",
			},
      {
				"id": "8",
				"judul": "Ucapan salam dalam rombongan",
			},
      {
				"id": "9",
				"judul": "Larangan mendahului salam kepada orang kafir",
			},
      {
				"id": "10",
				"judul": "Anjuran mendo’akan kepada orang yang bersin",
			},
      {
				"id": "11",
				"judul": "Larangan minum sambil berdiri",
			},
      {
				"id": "12",
				"judul": "Adab memakai Sandal",
			},
      {
				"id": "13",
				"judul": "Larangan berjalan dengan satu sandal",
			},
      {
				"id": "14",
				"judul": "Larangan isbal",
			},
      {
				"id": "15",
				"judul": "Adab makan dan minum",
			},
      {
				"id": "16",
				"judul": "Larangan berlebih-lebihan",
			},
		]
	},
	{
		"id": "2",
		"judul": "Silaturahim Dan Kebaikan",
		"hadits": [
			{
				"id": "17",
				"judul": "Keutamaan silaturahim",
			},
      {
				"id": "18",
				"judul": "Larangan Memutus silaturahmi",
			},
      {
				"id": "19",
				"judul": "Perbuatan yang diharamkan",
			},
      {
				"id": "20",
				"judul": "Keutamaan keridhaan orang tua",
			},
      {
				"id": "21",
				"judul": "Anjuran menghormati tetangga",
			},
      {
				"id": "22",
				"judul": "Syirik dan dosa-dosa besar",
			},
      {
				"id": "23",
				"judul": "Mencaci maki orang tua",
			},
      {
				"id": "24",
				"judul": "Larangan mendiamkan saudara lebih dari tiga hari",
			},
      {
				"id": "25",
				"judul": "Setiap kebaikan adalah sedekah",
			},
      {
				"id": "26",
				"judul": "Larangan memandang rendah suatu  kebaikan",
			},
      {
				"id": "27",
				"judul": "Anjuran memperhatikan tetangga",
			},
      {
				"id": "28",
				"judul": "Menutupi aib sesama muslim",
			},
      {
				"id": "29",
				"judul": "Keutamaan orang yang menunjukan kepada kebaikan",
			},
      {
				"id": "30",
				"judul": "Membalas kebaikan",
			},
		]
	},
  {
		"id": "3",
		"judul": "Zuhud Dan Wara’",
		"hadits": [
			{
				"id": "31",
				"judul": "Menjauhi hal-hal syubhat",
			},
      {
				"id": "32",
				"judul": "Larangan berorientasi dunia dalam masalah ibadah",
			},
      {
				"id": "33",
				"judul": "Anjuran untuk wara’ kepada dunia",
			},
      {
				"id": "34",
				"judul": "Larangan menyerupai kaum kafir",
			},
      {
				"id": "35",
				"judul": "Anjuran meminta pertolongan hanya kepada Allah Shubhanahu wata’ala",
			},
      {
				"id": "36",
				"judul": "Anjuran Agar zuhud terhadap dunia",
			},
      {
				"id": "37",
				"judul": "Orang-orang yang dicintai Allah Shubhanahu wata’ala",
			},
      {
				"id": "38",
				"judul": "Anjuran untuk meninggalkan hal-hal yang tidak berguna",
			},
      {
				"id": "39",
				"judul": "Larangan berlebih-lebihan ketika  makan",
			},
      {
				"id": "40",
				"judul": "Taubat",
			},
      {
				"id": "41",
				"judul": "Diam",
			},
		]
	},
  {
		"id": "4",
		"judul": "Akhlaq Mulia Dan Tercela",
		"hadits": [
      {
				"id": "42",
				"judul": "Hasad",
			},
      {
				"id": "43",
				"judul": "Hasad 2",
			},
      {
				"id": "44",
				"judul": "Tidak menahan amarah",
			},
      {
				"id": "45",
				"judul": "Kedzaliman",
			},
      {
				"id": "46",
				"judul": "Kikir",
			},
      {
				"id": "47",
				"judul": "Riya’",
			},
      {
				"id": "48",
				"judul": "Munafik",
			},
      {
				"id": "49",
				"judul": "Munafik 2",
			},
      {
				"id": "50",
				"judul": "Mencaci maki",
			},
      {
				"id": "51",
				"judul": "Berperasangka buruk",
			},
      {
				"id": "52",
				"judul": "Kecurangan",
			},
      {
				"id": "53",
				"judul": "Memberatkan urusan kepada orang lain",
			},
      {
				"id": "54",
				"judul": "Larangan memukul wajah",
			},
      {
				"id": "55",
				"judul": "Tidak mudah marah",
			},
      {
				"id": "56",
				"judul": "Tidak adil dengan harta",
			},
      {
				"id": "57",
				"judul": "Dzalim",
			},
      {
				"id": "58",
				"judul": "Ghibah",
			},
      {
				"id": "59",
				"judul": "Menghina Muslim lain",
			},
      {
				"id": "60",
				"judul": "Berakhlaq jelek",
			},
      {
				"id": "61",
				"judul": "Berbantah-bantahan",
			},
      {
				"id": "62",
				"judul": "Kikir dan berakhlaq buruk",
			},
      {
				"id": "63",
				"judul": "Saling mencaci",
			},
      {
				"id": "64",
				"judul": "Menyengsarakan muslim lain",
			},
      {
				"id": "65",
				"judul": "Berperangai jahat",
			},
      {
				"id": "66",
				"judul": "Berkata kotor",
			},
      {
				"id": "67",
				"judul": "Mencaci orang yang sudah meninggal",
			},
      {
				"id": "68",
				"judul": "Mengadu domba",
			},
      {
				"id": "69",
				"judul": "Keutamaan menahan marah",
			},
      {
				"id": "70",
				"judul": "Keutamaan menahan marah 2",
			},
      {
				"id": "71",
				"judul": "Penipuan",
			},
      {
				"id": "72",
				"judul": "Mencuri pembicaraan",
			},
      {
				"id": "73",
				"judul": "Sibuk dengan aib sendiri",
			},
      {
				"id": "74",
				"judul": "Sombong",
			},
      {
				"id": "75",
				"judul": "Tergesa-gesa",
			},
      {
				"id": "76",
				"judul": "Sial",
			},
      {
				"id": "77",
				"judul": "Suka mengutuk",
			},
      {
				"id": "78",
				"judul": "Menghina orang lain",
			},
      {
				"id": "79",
				"judul": "Dusta dalam bercanda",
			},
      {
				"id": "80",
				"judul": "Penebus Ghibah",
			},
      {
				"id": "81",
				"judul": "Suka bertengkar dan berdebat",
			},
      {
				"id": "82",
				"judul": "Kejujuran dan kebohongan",
			},
      {
				"id": "83",
				"judul": "Berperasangka Buruk",
			},
      {
				"id": "84",
				"judul": "Duduk-duduk di tepi jalan",
			},
      {
				"id": "85",
				"judul": "Memahami Agama",
			},
      {
				"id": "86",
				"judul": "Akhlaq Mulia",
			},
      {
				"id": "87",
				"judul": "Malu bagian dari iman",
			},
      {
				"id": "88",
				"judul": "Perkataan Nabi-nabi terdahulu",
			},
      {
				"id": "89",
				"judul": "Mu’min yang kuat dicintai Allah Shubhanahu wata’ala",
			},
      {
				"id": "90",
				"judul": "Tawadhu",
			},
      {
				"id": "91",
				"judul": "Membela kehormatan muslim lain",
			},
      {
				"id": "92",
				"judul": "Membela kehormatan muslim lain 2",
			},
      {
				"id": "93",
				"judul": "Pemaaf",
			},
      {
				"id": "94",
				"judul": "Menyebarkan salam",
			},
      {
				"id": "95",
				"judul": "Agama adalah Nasehat",
			},
      {
				"id": "96",
				"judul": "Taqwa",
			},
      {
				"id": "97",
				"judul": "Wajah yang berseri-seri",
			},
      {
				"id": "98",
				"judul": "Seorang mukmin bagaikan cermin atas mukmin yang lain",
			},
      {
				"id": "99",
				"judul": "Sabar terhadap gangguan orang lain",
			},
      {
				"id": "100",
				"judul": "Do’a agar diberi akhlaq yang baik",
			},
		]
	},
  {
		"id": "5",
		"judul": "Dzikir Dan Doa",
		"hadits": [
      {
				"id": "101",
				"judul": "Keutamaan dzikir",
			},
      {
				"id": "102",
				"judul": "Dzikir jadi perisai dari adzab Allah Shubhanahu wata’ala",
			},
      {
				"id": "103",
				"judul": "Keutamaan majelis dzikir",
			},
      {
				"id": "104",
				"judul": "Shalawat atas Nabi sallallahu’alai wasalam",
			},
      {
				"id": "105",
				"judul": "Dzikir-dzikir yang disunnahkan",
			},
      {
				"id": "106",
				"judul": "Dzikir penghapus dosa-dosa",
			},
      {
				"id": "107",
				"judul": "Dzikir yang berat ditimbangan amal",
			},
      {
				"id": "108",
				"judul": "Dzikir-dzikir yang kekal",
			},
      {
				"id": "109",
				"judul": "Dzikir yang paling dicintai Allah Shubhanahu wata’ala",
			},
      {
				"id": "110",
				"judul": "Dzikir untuk simpanan di surga",
			},{
				"id": "111",
				"judul": "Do’a adalah ibadah",
			},
      {
				"id": "112",
				"judul": "Do’a adalah otak ibadah",
			},
      {
				"id": "113",
				"judul": "Tidak ada yang lebih mulia dari do’a",
			},
      {
				"id": "114",
				"judul": "Keutamaan Do’a diantara Adzan dan Iqamah",
			},
      {
				"id": "115",
				"judul": "Mengangkat tangan pada saat berdo’a",
			},
      {
				"id": "116",
				"judul": "Mengusap wajah setelah berdo’a",
			},
      {
				"id": "117",
				"judul": "Mengusap wajah setelah berdo’a 2",
			},
      {
				"id": "118",
				"judul": "Keutamaan orang yang banyak bershalawat",
			},
      {
				"id": "119",
				"judul": "Sayyidul istighfar",
			},
      {
				"id": "120",
				"judul": "Do’a di waktu pagi dan petang",
			},
      {
				"id": "121",
				"judul": "Do’a meminta perlindungan",
			},
      {
				"id": "122",
				"judul": "Do’a agar terbebas dari lilitan hutang",
			},
      {
				"id": "123",
				"judul": "Berdo’a dengan Asmaul Husna",
			},
      {
				"id": "124",
				"judul": "Dzikir Pagi dan Petang",
			},
      {
				"id": "125",
				"judul": "Do’a yang paling banyak dibaca Rasulullah sallallahu’alai wasalam",
			},
      {
				"id": "126",
				"judul": "Do’a memohon ampunan",
			},
      {
				"id": "127",
				"judul": "Do’a agar diperbaiki agamanya",
			},
      {
				"id": "128",
				"judul": "Do’a agar diberi ilmu yang bermanfaat",
			},
      {
				"id": "129",
				"judul": "Do’a agar diberi tambahan ilmu yang bermanfaat",
			},
      {
				"id": "130",
				"judul": "Do’a memohon segala kebaikan",
			},
      {
				"id": "131",
				"judul": "Dua kalimat yang paling dicintai Allah Subhanahu wata’ala",
			},
		]
	},
]
